{"pager":{"page":1,"pageCount":6,"total":263,"pageSize":50,"nextPage":"https://bid.dhis2.org/test/api/programTrackedEntityAttributes?page=2"},"programTrackedEntityAttributes":[{"id":"wsdbG0BRWtV","displayName":"Immunization Family Address"},{"id":"eVDnO2roZSQ","displayName":"Immunization Village/Domicile"},{"id":"ktFxAb0RyzY","displayName":"Immunization Zone"},{"id":"IkKDCqHC5dx","displayName":"Immunization Place of Birth"},{"id":"AfRxsKXchx4","displayName":"Immunization Birth weight (in kg)"},{"id":"Uzyl9Z40PS7","displayName":"Immunization Mother/Caregiver's contact number"},{"id":"pcBW2k8liOw","displayName":"Immunization Mother/Caregiver's NRC number"},{"id":"XhQZ7cvVY0P","displayName":"Immunization Mother/Caregiver's last name"},{"id":"bAxi7XVocIm","displayName":"Immunization Mother/Caregiver's first name"},{"id":"riAOiVN8exC","displayName":"Immunization Date of Birth"},{"id":"vVgFDerfJoV","displayName":"Immunization Gender"},{"id":"DXtMLLHZMvG","displayName":"Immunization Last name"},{"id":"sHqpasiaAAw","displayName":"Immunization First Name"},{"id":"ldLvT6L6gOt","displayName":"Immunization Child Number"},{"id":"VuRuDjMdUfp","displayName":"Test Immunisation Test Yes or No"},{"id":"AXHEbmafd8R","displayName":"Test Immunisation Test Full Name"},{"id":"MnveXVrZ5Tb","displayName":"Test Yes or No"},{"id":"iZr6uarFiw6","displayName":"Test Full Name"},{"id":"hVNEtYDtSqk","displayName":"Test Yes or No"},{"id":"F0oqhOC0vHa","displayName":"Test Full Name"},{"id":"y2iTbTl11zI","displayName":"Test Yes or No"},{"id":"do8w0xDZcdY","displayName":"Test Full Name"},{"id":"SZFyYcxCKqB","displayName":"Family Address"},{"id":"cJfrv9DQldh","displayName":"Village/Domicile"},{"id":"QNLjabaqZlR","displayName":"Zone"},{"id":"IbW6wZ0tvA3","displayName":"Place of Birth"},{"id":"qXngNdgi3R0","displayName":"Birth weight (in kg)"},{"id":"ZoNQgkE7qoL","displayName":"Mother/Caregiver's contact number"},{"id":"WlyKubXB378","displayName":"Mother/Caregiver's NRC number"},{"id":"p6WK91paQRN","displayName":"Mother/Caregiver's last name"},{"id":"RFPOavAVlLp","displayName":"Mother/Caregiver's first name"},{"id":"WulrPqcgDlW","displayName":"Date of Birth"},{"id":"iFEE9hmfSc4","displayName":"Gender"},{"id":"jBiv9JG0dkh","displayName":"Last name"},{"id":"bfkwqjv5EoL","displayName":"First Name"},{"id":"ehi1bYQ5W9x","displayName":"Child Number"},{"id":"m1NVmb1DBfW","displayName":"Family Address"},{"id":"tObF3Eog7me","displayName":"Village/Domicile"},{"id":"JqiecofvLIU","displayName":"Zone"},{"id":"SUKybS3zRJE","displayName":"Place of Birth"},{"id":"DtpNaiLuqMN","displayName":"Birth weight (in kg)"},{"id":"Yy7dR7pb99m","displayName":"Mother/Caregiver's contact number"},{"id":"zoi2tBTAJJl","displayName":"Mother/Caregiver's NRC number"},{"id":"s0DvZUOkdCb","displayName":"Mother/Caregiver's last name"},{"id":"f5kcFZv4vtH","displayName":"Mother/Caregiver's first name"},{"id":"bES73bpUgSs","displayName":"Date of Birth"},{"id":"JKhMAfqMS1U","displayName":"Gender"},{"id":"Z6B9sxIvyzI","displayName":"Last name"},{"id":"HXdC4OfZIWM","displayName":"First Name"},{"id":"pCiY6xo9OFq","displayName":"Child Number"}]}